{
  "phone": {
    "number": "0391 - 251 94 383",
    "phone_links": "+4939125194383"
  },

  "content": [
    {
      "header": "Cloudlösungen<br/>für den Mittelstand",
      "img_path": "images/cloud-icon.png",
      "text": [
        "Lorem ipsum dolor sit amet, consetetur sadipscing elitr, sed diam nonumy eirmod tempor invidunt ut labore et dolore magna aliquyam erat, sed diam voluptua. At vero eos et accusam et justo duo dolores et ea rebum. Stet clita kasd gubergren, no sea takimata sanctus est Lorem ipsum dolor sit."
      ]
    },
    {
      "header": "Lizenzgebühren<br/>einfach sparen",
      "img_path": "images/euro-icon.png",
      "text": [
        "Lorem ipsum dolor sit amet, consetetur sadipscing elitr, sed diam nonumy eirmod tempor invidunt ut labore et dolore magna aliquyam erat, sed diam voluptua. At vero eos et accusam et justo duo dolores et ea rebum. Stet clita kasd gubergren, no sea takimata sanctus est Lorem ipsum dolor sit."
      ]      
    },
    {
      "header": "Sicherheit<br/>für Ihre Daten",
      "img_path": "images/security-icon.png",
      "text": [
        "Lorem ipsum dolor sit amet, consetetur sadipscing elitr, sed diam nonumy eirmod tempor invidunt ut labore et dolore magna aliquyam erat, sed diam voluptua. At vero eos et accusam et justo duo dolores et ea rebum. Stet clita kasd gubergren, no sea takimata sanctus est Lorem ipsum dolor sit."
      ]      
    }
  ],

  "footer": {
    "left_col": {
      "header": "Lassen Sie sich beraten",
      "text": [
        "Damit wir Ihnen zeigen können wie sich Kosten sparen und gleichzeitig sicherer und flexibler arbeiten können, lohnt das persönliche und kostenlose Gespräch.<br/> Rufen Sie uns einfach an oder nutzen Sie unser Kontaktformular.",
        "Wir freuen uns auch Ihnen bald zu helfen."
      ],
      "contact": {
        "header": "Cloud Projekt",
        "owner": "Inhaber Daniel Tost",
        "adress": [
          "Maxim-Gorki-Str. 42<br>",
          "39108 Magdeburg<br>",
          "info@cloudprojekt.de"
        ],
        "phone": "Jetzt anrufen"
      }
    }
  }
}